Merging BrainChart and ENIGMA outputs
…
## Rows: 299 Columns: 9
## ── Column specification ────────────────────────────────────────────────────────
## Delimiter: ","
## chr (5): participant, sex, dx, age_band, total_dx_group
## dbl (4): Age, age_prediction, BAG, total_dx
## 
## ℹ Use `spec()` to retrieve the full column specification for this data.
## ℹ Specify the column types or set `show_col_types = FALSE` to quiet this message.

# Note the version of total disorder groupings used in enigma_new (0-1, 2-3, 4+) 
enigma_new

## # A tibble: 299 × 9
##    participant     sex    dx        Age age_prediction   BAG total_dx age_band
##    <chr>           <chr>  <chr>   <dbl>          <dbl> <dbl>    <dbl> <chr>   
##  1 sub-CMH00000001 Female Non-PSS  13.8          23.5   9.63        5 11-14   
##  2 sub-CMH00000003 Female PSS      15.3          36.0  20.7         5 15-17   
##  3 sub-CMH00000004 Male   Non-PSS  15.1          27.0  11.9         2 15-17   
##  4 sub-CMH00000005 Male   Non-PSS  12.4          20.8   8.42        1 11-14   
##  5 sub-CMH00000007 Female Non-PSS  16.2          11.5  -4.66        2 15-17   
##  6 sub-CMH00000008 Female Non-PSS  17.1           9.04 -8.07        5 15-17   
##  7 sub-CMH00000009 Female PSS      13.6          16.0   2.37        3 11-14   
##  8 sub-CMH00000013 Female PSS      15.7          16.8   1.13        2 15-17   
##  9 sub-CMH00000016 Male   PSS      15.8          33.8  18.0         5 15-17   
## 10 sub-CMH00000017 Female Non-PSS  20.0          27.7   7.68        4 18-21   
## # ℹ 289 more rows
## # ℹ 1 more variable: total_dx_group <chr>
…
## Rows: 321 Columns: 69
## ── Column specification ────────────────────────────────────────────────────────
## Delimiter: "\t"
## chr  (1): bids_name
## dbl (68): cjv, cnr, efc, fber, fwhm_avg, fwhm_x, fwhm_y, fwhm_z, icvs_csf, i...
## 
## ℹ Use `spec()` to retrieve the full column specification for this data.
## ℹ Specify the column types or set `show_col_types = FALSE` to quiet this message.

group_T1w

## # A tibble: 321 × 69
##    bids_name        cjv   cnr   efc  fber fwhm_avg fwhm_x fwhm_y fwhm_z icvs_csf
##    <chr>          <dbl> <dbl> <dbl> <dbl>    <dbl>  <dbl>  <dbl>  <dbl>    <dbl>
##  1 sub-CMH000000… 0.390  2.99 0.576  81       3.30   3.27   3.53   3.11    0.175
##  2 sub-CMH000000… 0.487  2.37 0.559  73.2     3.17   3.20   3.24   3.06    0.177
##  3 sub-CMH000000… 0.411  3.17 0.610  88.0     3.40   3.36   3.49   3.35    0.157
##  4 sub-CMH000000… 0.377  3.43 0.583  84.7     3.29   3.39   3.26   3.21    0.163
##  5 sub-CMH000000… 0.392  2.93 0.562  78.8     3.19   3.11   3.34   3.13    0.182
##  6 sub-CMH000000… 0.443  2.92 0.549 135.      3.45   3.44   3.58   3.34    0.147
##  7 sub-CMH000000… 0.400  3.07 0.573  82.5     3.30   3.31   3.40   3.19    0.191
##  8 sub-CMH000000… 0.478  2.33 0.566 114.      3.62   3.55   3.73   3.58    0.158
##  9 sub-CMH000000… 0.406  2.84 0.595  74.7     3.29   3.31   3.37   3.17    0.193
## 10 sub-CMH000000… 0.432  2.54 0.596  92.5     3.38   3.37   3.45   3.33    0.181
## # ℹ 311 more rows
## # ℹ 59 more variables: icvs_gm <dbl>, icvs_wm <dbl>, inu_med <dbl>,
## #   inu_range <dbl>, qi_1 <dbl>, qi_2 <dbl>, rpve_csf <dbl>, rpve_gm <dbl>,
## #   rpve_wm <dbl>, size_x <dbl>, size_y <dbl>, size_z <dbl>, snr_csf <dbl>,
## #   snr_gm <dbl>, snr_total <dbl>, snr_wm <dbl>, snrd_csf <dbl>, snrd_gm <dbl>,
## #   snrd_total <dbl>, snrd_wm <dbl>, spacing_x <dbl>, spacing_y <dbl>,
## #   spacing_z <dbl>, summary_bg_k <dbl>, summary_bg_mad <dbl>, …
…
## Rows: 1198 Columns: 45
## ── Column specification ────────────────────────────────────────────────────────
## Delimiter: "\t"
## chr  (1): bids_name
## dbl (44): aor, aqi, dummy_trs, dvars_nstd, dvars_std, dvars_vstd, efc, fber,...
## 
## ℹ Use `spec()` to retrieve the full column specification for this data.
## ℹ Specify the column types or set `show_col_types = FALSE` to quiet this message.

group_bold

## # A tibble: 1,198 × 45
##    bids_name         aor     aqi dummy_trs dvars_nstd dvars_std dvars_vstd   efc
##    <chr>           <dbl>   <dbl>     <dbl>      <dbl>     <dbl>      <dbl> <dbl>
##  1 sub-CMH00000… 4.57e-4 0.00659         7       33.2      1.15      0.995 0.440
##  2 sub-CMH00000… 3.95e-4 0.00639         6       32.9      1.13      0.989 0.441
##  3 sub-CMH00000… 4.92e-4 0.00734        10       33.1      1.15      0.996 0.435
##  4 sub-CMH00000… 3.00e-4 0.00934         8       32.9      1.11      0.975 0.437
##  5 sub-CMH00000… 4.63e-4 0.00426        10       26.5      1.11      0.994 0.427
##  6 sub-CMH00000… 3.14e-4 0.00422        13       25.4      1.09      0.992 0.427
##  7 sub-CMH00000… 1.43e-3 0.00678        10       27.5      1.11      0.990 0.427
##  8 sub-CMH00000… 1.46e-3 0.00705         8       28.5      1.12      1.00  0.427
##  9 sub-CMH00000… 1.10e-2 0.00918         6       32.0      1.22      1.11  0.432
## 10 sub-CMH00000… 9.08e-3 0.0116          6       34.8      1.14      1.04  0.433
## # ℹ 1,188 more rows
## # ℹ 37 more variables: fber <dbl>, fd_mean <dbl>, fd_num <dbl>, fd_perc <dbl>,
## #   fwhm_avg <dbl>, fwhm_x <dbl>, fwhm_y <dbl>, fwhm_z <dbl>, gcor <dbl>,
## #   gsr_x <dbl>, gsr_y <dbl>, size_t <dbl>, size_x <dbl>, size_y <dbl>,
## #   size_z <dbl>, snr <dbl>, spacing_tr <dbl>, spacing_x <dbl>,
## #   spacing_y <dbl>, spacing_z <dbl>, summary_bg_k <dbl>, summary_bg_mad <dbl>,
## #   summary_bg_mean <dbl>, summary_bg_median <dbl>, summary_bg_n <dbl>, …

Comments on the qi_1 values:
- because subject 433 has a qi_1 value of 0, in the context of graphs and implications for subsequent analyses, this participant will not have much of an influence on results (we are mostly interested in participants with non-zero qi_1 values)

0.4 Incorporate QA metrics

Resource with tips and tricks for using the dplyr filter function: https://sebastiansauer.github.io/dplyr_filter/

# filter out participants with zero values for qi_1
group_T1w %>% 
  select(bids_name, qi_1) %>% # include only these 2 columns 
  filter(qi_1 != 0) # filter for rows that have non-zero qi_1 values  

## # A tibble: 49 × 2
##    bids_name                               qi_1
##    <chr>                                  <dbl>
##  1 sub-CMH00000020_ses-01_T1w        0.0166    
##  2 sub-CMH00000024_ses-01_T1w        0.00000906
##  3 sub-CMH00000027_ses-01_T1w        0.00000431
##  4 sub-CMH00000028_ses-01_T1w        0.000169  
##  5 sub-CMH00000046_ses-01_T1w        0.000389  
##  6 sub-CMH00000050_ses-01_T1w        0.000255  
##  7 sub-CMH00000062_ses-01_run-01_T1w 0.00000896
##  8 sub-CMH00000062_ses-01_run-02_T1w 0.00000640
##  9 sub-CMH00000086_ses-01_T1w        0.0000715 
## 10 sub-CMH00000107_ses-01_T1w        0.0000369 
## # ℹ 39 more rows

# There are 49 entries of non-zero qi_1 values but some of these correspond to multiple runs for the same participant

# filter for participants with multiple runs
multi_run <- group_T1w %>% 
  select(bids_name, qi_1) %>% 
  filter(str_detect(bids_name, "run")) # filter for rows with multiple runs
# There are 36 entries corresponding to participants with multiple runs, including some that have qi_1 values of zero for both runs.
multi_run

## # A tibble: 36 × 2
##    bids_name                               qi_1
##    <chr>                                  <dbl>
##  1 sub-CMH00000019_ses-01_run-01_T1w 0         
##  2 sub-CMH00000019_ses-01_run-02_T1w 0         
##  3 sub-CMH00000039_ses-01_run-01_T1w 0         
##  4 sub-CMH00000039_ses-01_run-02_T1w 0         
##  5 sub-CMH00000056_ses-01_run-01_T1w 0         
##  6 sub-CMH00000056_ses-01_run-02_T1w 0         
##  7 sub-CMH00000062_ses-01_run-01_T1w 0.00000896
##  8 sub-CMH00000062_ses-01_run-02_T1w 0.00000640
##  9 sub-CMH00000150_ses-01_run-01_T1w 0.0000376 
## 10 sub-CMH00000150_ses-01_run-02_T1w 0         
## # ℹ 26 more rows
…
#### remove subsetted data frames ####
# remove the subsetted blacklist data frame using the anti_join function
filtered_T1 <- anti_join(group_T1w, blacklist_T1, by = "bids_name")
filtered_T1

## # A tibble: 317 × 69
##    bids_name        cjv   cnr   efc  fber fwhm_avg fwhm_x fwhm_y fwhm_z icvs_csf
##    <chr>          <dbl> <dbl> <dbl> <dbl>    <dbl>  <dbl>  <dbl>  <dbl>    <dbl>
##  1 sub-CMH000000… 0.390  2.99 0.576  81       3.30   3.27   3.53   3.11    0.175
##  2 sub-CMH000000… 0.487  2.37 0.559  73.2     3.17   3.20   3.24   3.06    0.177
##  3 sub-CMH000000… 0.411  3.17 0.610  88.0     3.40   3.36   3.49   3.35    0.157
##  4 sub-CMH000000… 0.377  3.43 0.583  84.7     3.29   3.39   3.26   3.21    0.163
##  5 sub-CMH000000… 0.392  2.93 0.562  78.8     3.19   3.11   3.34   3.13    0.182
##  6 sub-CMH000000… 0.443  2.92 0.549 135.      3.45   3.44   3.58   3.34    0.147
##  7 sub-CMH000000… 0.400  3.07 0.573  82.5     3.30   3.31   3.40   3.19    0.191
##  8 sub-CMH000000… 0.478  2.33 0.566 114.      3.62   3.55   3.73   3.58    0.158
##  9 sub-CMH000000… 0.406  2.84 0.595  74.7     3.29   3.31   3.37   3.17    0.193
## 10 sub-CMH000000… 0.432  2.54 0.596  92.5     3.38   3.37   3.45   3.33    0.181
## # ℹ 307 more rows
## # ℹ 59 more variables: icvs_gm <dbl>, icvs_wm <dbl>, inu_med <dbl>,
## #   inu_range <dbl>, qi_1 <dbl>, qi_2 <dbl>, rpve_csf <dbl>, rpve_gm <dbl>,
## #   rpve_wm <dbl>, size_x <dbl>, size_y <dbl>, size_z <dbl>, snr_csf <dbl>,
## #   snr_gm <dbl>, snr_total <dbl>, snr_wm <dbl>, snrd_csf <dbl>, snrd_gm <dbl>,
## #   snrd_total <dbl>, snrd_wm <dbl>, spacing_x <dbl>, spacing_y <dbl>,
## #   spacing_z <dbl>, summary_bg_k <dbl>, summary_bg_mad <dbl>, …

# remove the subsetted flagged data frame using the anti_join function
extra_filtered_T1 <- anti_join(filtered_T1, flagged_T1, by = "bids_name") %>% select(bids_name, qi_1)
extra_filtered_T1

## # A tibble: 310 × 2
##    bids_name                   qi_1
##    <chr>                      <dbl>
##  1 sub-CMH00000001_ses-01_T1w     0
##  2 sub-CMH00000003_ses-01_T1w     0
##  3 sub-CMH00000004_ses-01_T1w     0
##  4 sub-CMH00000005_ses-01_T1w     0
##  5 sub-CMH00000007_ses-01_T1w     0
##  6 sub-CMH00000008_ses-01_T1w     0
##  7 sub-CMH00000009_ses-01_T1w     0
##  8 sub-CMH00000013_ses-01_T1w     0
##  9 sub-CMH00000016_ses-01_T1w     0
## 10 sub-CMH00000017_ses-01_T1w     0
## # ℹ 300 more rows

#remove the subsetted flagged data frame using the anti_join function
final_filtered_T1 <- anti_join(extra_filtered_T1, final_filter, by = "bids_name") %>% select(bids_name, qi_1)
final_filtered_T1

## # A tibble: 304 × 2
##    bids_name                   qi_1
##    <chr>                      <dbl>
##  1 sub-CMH00000001_ses-01_T1w     0
##  2 sub-CMH00000003_ses-01_T1w     0
##  3 sub-CMH00000004_ses-01_T1w     0
##  4 sub-CMH00000005_ses-01_T1w     0
##  5 sub-CMH00000007_ses-01_T1w     0
##  6 sub-CMH00000008_ses-01_T1w     0
##  7 sub-CMH00000009_ses-01_T1w     0
##  8 sub-CMH00000013_ses-01_T1w     0
##  9 sub-CMH00000016_ses-01_T1w     0
## 10 sub-CMH00000017_ses-01_T1w     0
## # ℹ 294 more rows

# rename bids_name column "participant" and string format to match brainage_final
# remove "_run-01"
final_filtered_T1$bids_name <- gsub("_run-01", "", final_filtered_T1$bids_name) 
# remove "_run-02"
final_filtered_T1$bids_name <- gsub("_run-02", "", final_filtered_T1$bids_name) 
# remove '_ses-01_T1w' string ending and rename 'bids_name' column 
final_filtered_T1 <- final_filtered_T1 %>%
  mutate(participant = str_replace(bids_name, "_ses-01_T1w", "")) %>%
  select(-bids_name) %>%
  relocate(participant, .before = qi_1)
final_filtered_T1

## # A tibble: 304 × 2
##    participant      qi_1
##    <chr>           <dbl>
##  1 sub-CMH00000001     0
##  2 sub-CMH00000003     0
##  3 sub-CMH00000004     0
##  4 sub-CMH00000005     0
##  5 sub-CMH00000007     0
##  6 sub-CMH00000008     0
##  7 sub-CMH00000009     0
##  8 sub-CMH00000013     0
##  9 sub-CMH00000016     0
## 10 sub-CMH00000017     0
## # ℹ 294 more rows
…
