MRI Quality Assurance Metrics
…
Plots do not really show much because most values are zero.

0.5 Create new data frames

# subset brainage_final to create a new data frame that only includes participants with QI1 values of zero
zero_qi1 <- brainage_final %>% filter(qi_1 == 0) 
zero_qi1

## # A tibble: 251 × 12
##    participant     sex    ASD_dx dx      total_dx total_dx_group age_band   Age
##    <chr>           <chr>  <chr>  <chr>      <dbl> <chr>          <chr>    <dbl>
##  1 sub-CMH00000001 Female No     Non-PSS        5 4+             11-14     13.8
##  2 sub-CMH00000003 Female Yes    PSS            5 4+             15-17     15.3
##  3 sub-CMH00000004 Male   Yes    Non-PSS        2 2-3            15-17     15.1
##  4 sub-CMH00000005 Male   Yes    Non-PSS        1 0-1            11-14     12.4
##  5 sub-CMH00000007 Female Yes    Non-PSS        2 2-3            15-17     16.2
##  6 sub-CMH00000008 Female Yes    Non-PSS        5 4+             15-17     17.1
##  7 sub-CMH00000009 Female Yes    PSS            3 2-3            11-14     13.6
##  8 sub-CMH00000013 Female No     PSS            2 2-3            15-17     15.7
##  9 sub-CMH00000016 Male   No     PSS            5 4+             15-17     15.8
## 10 sub-CMH00000017 Female <NA>   Non-PSS        4 4+             18-21     20.0
## # ℹ 241 more rows
## # ℹ 4 more variables: age_prediction <dbl>, BAG <dbl>, centile <dbl>,
## #   qi_1 <dbl>

zero_qi1 is a data frame with 251 participants who have qi_1 of 0

# subset brainage_final to create a new data frame that only includes participants with non-zero QI_1 values
nonzero_qi1 <- brainage_final %>% filter(qi_1 != 0) 
nonzero_qi1

## # A tibble: 35 × 12
##    participant     sex    ASD_dx dx      total_dx total_dx_group age_band   Age
##    <chr>           <chr>  <chr>  <chr>      <dbl> <chr>          <chr>    <dbl>
##  1 sub-CMH00000024 Male   <NA>   PSS            4 4+             21+       24.8
##  2 sub-CMH00000027 Female No     PSS            1 0-1            15-17     17.0
##  3 sub-CMH00000028 Female <NA>   PSS            5 4+             18-21     19.6
##  4 sub-CMH00000046 Female <NA>   PSS            6 4+             21+       23.5
##  5 sub-CMH00000050 Male   Yes    PSS            3 2-3            11-14     14.4
##  6 sub-CMH00000062 Female Yes    PSS            2 2-3            11-14     11.2
##  7 sub-CMH00000086 Female <NA>   PSS            7 4+             21+       23.6
##  8 sub-CMH00000107 Female Yes    PSS            1 0-1            11-14     14.3
##  9 sub-CMH00000108 Male   <NA>   PSS            4 4+             21+       23.0
## 10 sub-CMH00000118 Female No     Non-PSS        3 2-3            15-17     15.9
## # ℹ 25 more rows
## # ℹ 4 more variables: age_prediction <dbl>, BAG <dbl>, centile <dbl>,
## #   qi_1 <dbl>
…
# subset brainage_final to create a new data frame that only includes participants without extreme QI1 values (qi_1 < 0.5E-04)
mild_qi1 <- brainage_final %>% filter(qi_1 < 0.5E-04)  
mild_qi1

## # A tibble: 274 × 12
##    participant     sex    ASD_dx dx      total_dx total_dx_group age_band   Age
##    <chr>           <chr>  <chr>  <chr>      <dbl> <chr>          <chr>    <dbl>
##  1 sub-CMH00000001 Female No     Non-PSS        5 4+             11-14     13.8
##  2 sub-CMH00000003 Female Yes    PSS            5 4+             15-17     15.3
##  3 sub-CMH00000004 Male   Yes    Non-PSS        2 2-3            15-17     15.1
##  4 sub-CMH00000005 Male   Yes    Non-PSS        1 0-1            11-14     12.4
##  5 sub-CMH00000007 Female Yes    Non-PSS        2 2-3            15-17     16.2
##  6 sub-CMH00000008 Female Yes    Non-PSS        5 4+             15-17     17.1
##  7 sub-CMH00000009 Female Yes    PSS            3 2-3            11-14     13.6
##  8 sub-CMH00000013 Female No     PSS            2 2-3            15-17     15.7
##  9 sub-CMH00000016 Male   No     PSS            5 4+             15-17     15.8
## 10 sub-CMH00000017 Female <NA>   Non-PSS        4 4+             18-21     20.0
## # ℹ 264 more rows
## # ℹ 4 more variables: age_prediction <dbl>, BAG <dbl>, centile <dbl>,
## #   qi_1 <dbl>
…
